<?xml version="1.0" encoding="UTF-8" standalone="no"?>
<svg
   xmlns:dc="http://purl.org/dc/elements/1.1/"
   xmlns:cc="http://creativecommons.org/ns#"
   xmlns:rdf="http://www.w3.org/1999/02/22-rdf-syntax-ns#"
   xmlns:svg="http://www.w3.org/2000/svg"
   xmlns="http://www.w3.org/2000/svg"
   xmlns:sodipodi="http://sodipodi.sourceforge.net/DTD/sodipodi-0.dtd"
   xmlns:inkscape="http://www.inkscape.org/namespaces/inkscape"
   width="210mm"
   height="297mm"
   viewBox="0 0 210 297"
   version="1.1"
   id="svg8"
   inkscape:version="1.0.1 (3bc2e813f5, 2020-09-07)"
   sodipodi:docname="marc.svg">
  <defs
     id="defs2" />
  <sodipodi:namedview
     id="base"
     pagecolor="#464646"
     bordercolor="#666666"
     borderopacity="1.0"
     inkscape:pageopacity="0"
     inkscape:pageshadow="2"
     inkscape:zoom="0.49497475"
     inkscape:cx="525.02127"
     inkscape:cy="580.0451"
     inkscape:document-units="mm"
     inkscape:current-layer="layer1"
     inkscape:document-rotation="0"
     showgrid="false"
     showguides="false"
     inkscape:window-width="1920"
     inkscape:window-height="1052"
     inkscape:window-x="2040"
     inkscape:window-y="0"
     inkscape:window-maximized="1" />
  <metadata
     id="metadata5">
    <rdf:RDF>
      <cc:Work
         rdf:about="">
        <dc:format>image/svg+xml</dc:format>
        <dc:type
           rdf:resource="http://purl.org/dc/dcmitype/StillImage" />
        <dc:title />
      </cc:Work>
    </rdf:RDF>
  </metadata>
  <g
     inkscape:label="Layer 1"
     inkscape:groupmode="layer"
     id="layer1">
    <rect
       style="fill:#549ab6;stroke:none;stroke-width:10;stroke-linecap:round;stroke-linejoin:bevel"
       id="rect833"
       width="118.23521"
       height="118.23521"
       x="41.673721"
       y="91.935555"
       ry="41.407932"
       inkscape:export-filename="/home/marc/Documents/devProject/basicwebsite/public/img/brand/marcLogoColor.png"
       inkscape:export-xdpi="369.52899"
       inkscape:export-ydpi="369.52899" />
    <path
       style="fill:none;stroke:#e76f51;stroke-width:5;stroke-linecap:round;stroke-linejoin:miter;stroke-miterlimit:4;stroke-dasharray:none;stroke-opacity:1"
       d="m 63.202471,197.70098 c 0,0 -13.474724,-52.88294 -2.506493,-73.29232 10.96823,-20.40937 38.288083,-25.330426 38.288083,-25.330426 0,0 -30.737418,44.827046 -9.750327,52.597706 20.987096,7.77066 28.130156,-50.14444 28.130156,-50.14444 0,0 66.43033,49.43723 0.53984,95.0346"
       id="path835"
       inkscape:export-filename="/home/marc/Documents/devProject/basicwebsite/public/img/brand/marcLogoColor.png"
       inkscape:export-xdpi="369.52899"
       inkscape:export-ydpi="369.52899" />
  </g>
</svg>
